Rockies Final Project
…
massive_df <- read.csv("~/DU/Junior Year/Spring 2020/Sports Amalytics/Rockies Project/massive_data.csv")

plots <- massive_df %>% 
  mutate(., hc_yy = (-1*hc_y)) %>%
  mutate(., out_v = if_else(events == c("single", "home_run", "double", "triple"), "hit", "out"))

events <- tbl_df(unique(massive_df$events)) 
events

## # A tibble: 24 x 1
##    value                
##    <chr>                
##  1 strikeout            
##  2 null                 
##  3 field_error          
##  4 single               
##  5 field_out            
##  6 home_run             
##  7 double               
##  8 walk                 
##  9 strikeout_double_play
## 10 force_out            
## # ... with 14 more rows
…
